level_one_ProjectModule5.sim/sim_1/behav/xsim/cpu_tb.vcd
$date
   Thu Oct 23 10:37:11 2025
$end

$version
  2025.1.0
  $dumpfile ("cpu_tb.vcd") 
$end

$timescale
  1ps
$end

$scope module tb_CPU $end
$var reg 1 ! clk $end
$var reg 1 " reset $end
$scope module uut $end
$var wire 1 # clk $end
$var wire 1 $ reset $end
$var reg 32 % PC [31:0] $end
$var wire 32 & next_pc [31:0] $end
$var wire 32 ' instruction [31:0] $end
$var wire 4 ( opcode [3:0] $end
$var wire 5 ) rs1 [4:0] $end
$var wire 5 * rs2 [4:0] $end
$var wire 5 + rd [4:0] $end
$var wire 13 , immediate [12:0] $end
$var wire 32 - read_data1 [31:0] $end
$var wire 32 . read_data2 [31:0] $end
$var wire 32 / write_data [31:0] $end
$var wire 1 0 register_write $end
$var wire 1 1 memory_read $end
$var wire 1 2 memory_write $end
$var wire 1 3 branch $end
$var wire 1 4 ALUSrc $end
$var wire 1 5 memory_to_register $end
$var wire 3 6 ALUopcode [2:0] $end
$var wire 32 7 imm_ext [31:0] $end
$var wire 32 8 ALU_in2 [31:0] $end
$var wire 32 9 ALU_result [31:0] $end
$var wire 1 : zero_flag $end
$var wire 32 ; memory_read_data [31:0] $end
$scope module imem $end
$var wire 32 < address [31:0] $end
$var wire 32 ' instruction [31:0] $end
$upscope $end
$scope module register_file $end
$var wire 1 # clk $end
$var wire 1 $ reset $end
$var wire 1 0 register_write $end
$var wire 5 ) rs1 [4:0] $end
$var wire 5 * rs2 [4:0] $end
$var wire 5 + rd [4:0] $end
$var wire 32 / write_data [31:0] $end
$var wire 32 - read_data1 [31:0] $end
$var wire 32 . read_data2 [31:0] $end
$var integer 32 = i [31:0] $end
$upscope $end
$scope module control_unit $end
$var wire 4 ( opcode [3:0] $end
$var reg 1 > register_write $end
$var reg 1 ? ALUSrc $end
$var reg 3 @ ALUopcode [2:0] $end
$var reg 1 A memory_read $end
$var reg 1 B memory_write $end
$var reg 1 C memory_to_register $end
$var reg 1 D branch $end
$upscope $end
$scope module alu_inst $end
$var wire 32 - A [31:0] $end
$var wire 32 8 B [31:0] $end
$var wire 3 6 ALUopcode [2:0] $end
$var reg 32 E result [31:0] $end
$var wire 1 : zero $end
$upscope $end
$scope module data_mem $end
$var wire 1 # clk $end
$var wire 1 2 memory_write $end
$var wire 1 1 memory_read $end
$var wire 32 9 address [31:0] $end
$var wire 32 . write_data [31:0] $end
$var wire 32 ; read_data [31:0] $end
$upscope $end
$scope module program_counter $end
$var wire 32 F PC [31:0] $end
$var wire 32 7 immediate [31:0] $end
$var wire 1 3 branch $end
$var wire 1 : zero_flag $end
$var reg 32 G next_pc [31:0] $end
$var wire 32 H PC_plus4 [31:0] $end
$var wire 32 I branch_target [31:0] $end
$upscope $end
$upscope $end
$upscope $end
$enddefinitions $end

#0
$dumpvars
0!
1"
0#
1$
b0 %
b100 &
b111000000000000001000010000000 '
b11 (
b10000 )
b0 *
b0 +
b1000010000000 ,
b0 -
b0 .
b0 /
00
01
02
03
04
05
b0 6
b11111111111111111111000010000000 7
b0 8
b0 9
z:
b0 ;
b0 <
bx =
0>
0?
b0 @
0A
0B
0C
0D
b0 E
b0 F
b100 G
b100 H
b11111111111111111100001000000000 I
$end

#5000
1!
1#

#10000
0!
0#

#15000
1!
1#

#20000
0!
0"
0#
0$

#25000
1!
1#
b100 %
b1000 &
b111000000000000010000100000000 '
b1 +
b100000000 ,
b100000000 7
b100 <
b100 F
b1000 G
b1000 H
b10000000100 I

#30000
0!
0#

#35000
1!
1#
b1000 %
b1100 &
b111000000000000011000110000000 '
b1000110000000 ,
b11111111111111111111000110000000 7
b1000 <
b1000 F
b1100 G
b1100 H
b11111111111111111100011000001000 I

#40000
0!
0#

#45000
1!
1#
b1100 %
b10000 &
b111000000000000100001000000000 '
b10 +
b1000000000 ,
b1000000000 7
b1100 <
b1100 F
b10000 G
b10000 H
b100000001100 I

#50000
0!
0#

#55000
1!
1#
b10000 %
b10100 &
b111000000000000101001010000000 '
b1001010000000 ,
b11111111111111111111001010000000 7
b10000 <
b10000 F
b10100 G
b10100 H
b11111111111111111100101000010000 I

#60000
0!
0#

#65000
1!
1#
b10100 %
b11000 &
b111000000000000110001100000000 '
b11 +
b1100000000 ,
b1100000000 7
b10100 <
b10100 F
b11000 G
b11000 H
b110000010100 I

#70000
0!
0#

#75000
1!
1#
b11000 %
b11100 &
b10000000000100001010011100 '
b0 (
b100 )
b10 +
b1010011100 ,
10
b1010011100 7
b11000 <
1>
b11000 F
b11100 G
b11100 H
b101010001000 I

#80000
0!
0#

#85000
1!
1#
b11100 %
b100000 &
b10000000000101001100100000 '
b1001100100000 ,
b11111111111111111111001100100000 7
b11100 <
b11100 F
b100000 G
b100000 H
b11111111111111111100110010011100 I

#90000
0!
0#

#95000
1!
1#
b100000 %
b100100 &
b10000000000110000110100100 '
b11 +
b110100100 ,
b110100100 7
b100000 <
b100000 F
b100100 G
b100100 H
b11010110000 I

#100000
0!
0#

#105000
1!
1#
b100100 %
b101000 &
b111010000101000 '
b0 )
b1010000101000 ,
b11111111111111111111010000101000 7
b100100 <
b100100 F
b101000 G
b101000 H
b11111111111111111101000011000100 I

#110000
0!
0#

#115000
1!
1#
b101000 %
b101100 &
b1010010010011100 '
b101 +
b10010011100 ,
b10010011100 7
b101000 <
b101000 F
b101100 G
b101100 H
b1001010011000 I

#120000
0!
0#

#125000
1!
1#
b101100 %
b110000 &
bx '
bx (
bx )
bx *
bx +
bx ,
bx -
bx .
bx /
00
bx 7
bx 8
bx 9
b101100 <
0>
bx E
b101100 F
b110000 G
b110000 H
bx I

#130000
0!
0#

#135000
1!
1#
b110000 %
b110100 &
b110000 <
b110000 F
b110100 G
b110100 H

#140000
0!
0#

#145000
1!
1#
b110100 %
b111000 &
b110100 <
b110100 F
b111000 G
b111000 H

#150000
0!
0#

#155000
1!
1#
b111000 %
b111100 &
b111000 <
b111000 F
b111100 G
b111100 H

#160000
0!
0#

#165000
1!
1#
b111100 %
b1000000 &
b111100 <
b111100 F
b1000000 G
b1000000 H

#170000
0!
0#

#175000
1!
1#
b1000000 %
b1000100 &
b1000000 <
b1000000 F
b1000100 G
b1000100 H

#180000
0!
0#

#185000
1!
1#
b1000100 %
b1001000 &
b1000100 <
b1000100 F
b1001000 G
b1001000 H

#190000
0!
0#

#195000
1!
1#
b1001000 %
b1001100 &
b1001000 <
b1001000 F
b1001100 G
b1001100 H

#200000
0!
0#

#205000
1!
1#
b1001100 %
b1010000 &
b1001100 <
b1001100 F
b1010000 G
b1010000 H

#210000
0!
0#

#215000
1!
1#
b1010000 %
b1010100 &
b1010000 <
b1010000 F
b1010100 G
b1010100 H

#220000
0!
0#

#225000
1!
1#
b1010100 %
b1011000 &
b1010100 <
b1010100 F
b1011000 G
b1011000 H

#230000
0!
0#

#235000
1!
1#
b1011000 %
b1011100 &
b1011000 <
b1011000 F
b1011100 G
b1011100 H

#240000
0!
0#

#245000
1!
1#
b1011100 %
b1100000 &
b1011100 <
b1011100 F
b1100000 G
b1100000 H

#250000
0!
0#

#255000
1!
1#
b1100000 %
b1100100 &
b1100000 <
b1100000 F
b1100100 G
b1100100 H

#260000
0!
0#

#265000
1!
1#
b1100100 %
b1101000 &
b1100100 <
b1100100 F
b1101000 G
b1101000 H

#270000
0!
0#

#275000
1!
1#
b1101000 %
b1101100 &
b1101000 <
b1101000 F
b1101100 G
b1101100 H

#280000
0!
0#

#285000
1!
1#
b1101100 %
b1110000 &
b1101100 <
b1101100 F
b1110000 G
b1110000 H

#290000
0!
0#

#295000
1!
1#
b1110000 %
b1110100 &
b1110000 <
b1110000 F
b1110100 G
b1110100 H

#300000
0!
0#

#305000
1!
1#
b1110100 %
b1111000 &
b1110100 <
b1110100 F
b1111000 G
b1111000 H

#310000
0!
0#

#315000
1!
1#
b1111000 %
b1111100 &
b1111000 <
b1111000 F
b1111100 G
b1111100 H

#320000
0!
0#

#325000
1!
1#
b1111100 %
b10000000 &
b1111100 <
b1111100 F
b10000000 G
b10000000 H

#330000
0!
0#

#335000
1!
1#
b10000000 %
b10000100 &
b10000000 <
b10000000 F
b10000100 G
b10000100 H

#340000
0!
0#

#345000
1!
1#
b10000100 %
b10001000 &
b10000100 <
b10000100 F
b10001000 G
b10001000 H

#350000
0!
0#

#355000
1!
1#
b10001000 %
b10001100 &
b10001000 <
b10001000 F
b10001100 G
b10001100 H

#360000
0!
0#

#365000
1!
1#
b10001100 %
b10010000 &
b10001100 <
b10001100 F
b10010000 G
b10010000 H

#370000
0!
0#

#375000
1!
1#
b10010000 %
b10010100 &
b10010000 <
b10010000 F
b10010100 G
b10010100 H

#380000
0!
0#

#385000
1!
1#
b10010100 %
b10011000 &
b10010100 <
b10010100 F
b10011000 G
b10011000 H

#390000
0!
0#

#395000
1!
1#
b10011000 %
b10011100 &
b10011000 <
b10011000 F
b10011100 G
b10011100 H

#400000
0!
0#

#405000
1!
1#
b10011100 %
b10100000 &
b10011100 <
b10011100 F
b10100000 G
b10100000 H

#410000
0!
0#

#415000
1!
1#
b10100000 %
b10100100 &
b10100000 <
b10100000 F
b10100100 G
b10100100 H

#420000
0!
0#

#425000
1!
1#
b10100100 %
b10101000 &
b10100100 <
b10100100 F
b10101000 G
b10101000 H

#430000
0!
0#

#435000
1!
1#
b10101000 %
b10101100 &
b10101000 <
b10101000 F
b10101100 G
b10101100 H

#440000
0!
0#

#445000
1!
1#
b10101100 %
b10110000 &
b10101100 <
b10101100 F
b10110000 G
b10110000 H

#450000
0!
0#

#455000
1!
1#
b10110000 %
b10110100 &
b10110000 <
b10110000 F
b10110100 G
b10110100 H

#460000
0!
0#

#465000
1!
1#
b10110100 %
b10111000 &
b10110100 <
b10110100 F
b10111000 G
b10111000 H

#470000
0!
0#

#475000
1!
1#
b10111000 %
b10111100 &
b10111000 <
b10111000 F
b10111100 G
b10111100 H

#480000
0!
0#

#485000
1!
1#
b10111100 %
b11000000 &
b10111100 <
b10111100 F
b11000000 G
b11000000 H

#490000
0!
0#

#495000
1!
1#
b11000000 %
b11000100 &
b11000000 <
b11000000 F
b11000100 G
b11000100 H

#500000
0!
0#

#505000
1!
1#
b11000100 %
b11001000 &
b11000100 <
b11000100 F
b11001000 G
b11001000 H

#510000
0!
0#

#515000
1!
1#
b11001000 %
b11001100 &
b11001000 <
b11001000 F
b11001100 G
b11001100 H

#520000
0!
0#

#525000
1!
1#
b11001100 %
b11010000 &
b11001100 <
b11001100 F
b11010000 G
b11010000 H

#530000
0!
0#

#535000
1!
1#
b11010000 %
b11010100 &
b11010000 <
b11010000 F
b11010100 G
b11010100 H

#540000
0!
0#

#545000
1!
1#
b11010100 %
b11011000 &
b11010100 <
b11010100 F
b11011000 G
b11011000 H

#550000
0!
0#

#555000
1!
1#
b11011000 %
b11011100 &
b11011000 <
b11011000 F
b11011100 G
b11011100 H

#560000
0!
0#

#565000
1!
1#
b11011100 %
b11100000 &
b11011100 <
b11011100 F
b11100000 G
b11100000 H

#570000
0!
0#

#575000
1!
1#
b11100000 %
b11100100 &
b11100000 <
b11100000 F
b11100100 G
b11100100 H

#580000
0!
0#

#585000
1!
1#
b11100100 %
b11101000 &
b11100100 <
b11100100 F
b11101000 G
b11101000 H

#590000
0!
0#

#595000
1!
1#
b11101000 %
b11101100 &
b11101000 <
b11101000 F
b11101100 G
b11101100 H

#600000
0!
0#

#605000
1!
1#
b11101100 %
b11110000 &
b11101100 <
b11101100 F
b11110000 G
b11110000 H

#610000
0!
0#

#615000
1!
1#
b11110000 %
b11110100 &
b11110000 <
b11110000 F
b11110100 G
b11110100 H

#620000
0!
0#

#625000
1!
1#
b11110100 %
b11111000 &
b11110100 <
b11110100 F
b11111000 G
b11111000 H

#630000
0!
0#

#635000
1!
1#
b11111000 %
b11111100 &
b11111000 <
b11111000 F
b11111100 G
b11111100 H

#640000
0!
0#

#645000
1!
1#
b11111100 %
b100000000 &
b11111100 <
b11111100 F
b100000000 G
b100000000 H

#650000
0!
0#

#655000
1!
1#
b100000000 %
b100000100 &
b100000000 <
b100000000 F
b100000100 G
b100000100 H

#660000
0!
0#

#665000
1!
1#
b100000100 %
b100001000 &
b100000100 <
b100000100 F
b100001000 G
b100001000 H

#670000
0!
0#

#675000
1!
1#
b100001000 %
b100001100 &
b100001000 <
b100001000 F
b100001100 G
b100001100 H

#680000
0!
0#

#685000
1!
1#
b100001100 %
b100010000 &
b100001100 <
b100001100 F
b100010000 G
b100010000 H

#690000
0!
0#

#695000
1!
1#
b100010000 %
b100010100 &
b100010000 <
b100010000 F
b100010100 G
b100010100 H

#700000
0!
0#

#705000
1!
1#
b100010100 %
b100011000 &
b100010100 <
b100010100 F
b100011000 G
b100011000 H

#710000
0!
0#

#715000
1!
1#
b100011000 %
b100011100 &
b100011000 <
b100011000 F
b100011100 G
b100011100 H

#720000
0!
0#

#725000
1!
1#
b100011100 %
b100100000 &
b100011100 <
b100011100 F
b100100000 G
b100100000 H

#730000
0!
0#

#735000
1!
1#
b100100000 %
b100100100 &
b100100000 <
b100100000 F
b100100100 G
b100100100 H

#740000
0!
0#

#745000
1!
1#
b100100100 %
b100101000 &
b100100100 <
b100100100 F
b100101000 G
b100101000 H

#750000
0!
0#

#755000
1!
1#
b100101000 %
b100101100 &
b100101000 <
b100101000 F
b100101100 G
b100101100 H

#760000
0!
0#

#765000
1!
1#
b100101100 %
b100110000 &
b100101100 <
b100101100 F
b100110000 G
b100110000 H

#770000
0!
0#

#775000
1!
1#
b100110000 %
b100110100 &
b100110000 <
b100110000 F
b100110100 G
b100110100 H

#780000
0!
0#

#785000
1!
1#
b100110100 %
b100111000 &
b100110100 <
b100110100 F
b100111000 G
b100111000 H

#790000
0!
0#

#795000
1!
1#
b100111000 %
b100111100 &
b100111000 <
b100111000 F
b100111100 G
b100111100 H

#800000
0!
0#

#805000
1!
1#
b100111100 %
b101000000 &
b100111100 <
b100111100 F
b101000000 G
b101000000 H

#810000
0!
0#

#815000
1!
1#
b101000000 %
b101000100 &
b101000000 <
b101000000 F
b101000100 G
b101000100 H

#820000
0!
0#

#825000
1!
1#
b101000100 %
b101001000 &
b101000100 <
b101000100 F
b101001000 G
b101001000 H

#830000
0!
0#

#835000
1!
1#
b101001000 %
b101001100 &
b101001000 <
b101001000 F
b101001100 G
b101001100 H

#840000
0!
0#

#845000
1!
1#
b101001100 %
b101010000 &
b101001100 <
b101001100 F
b101010000 G
b101010000 H

#850000
0!
0#

#855000
1!
1#
b101010000 %
b101010100 &
b101010000 <
b101010000 F
b101010100 G
b101010100 H

#860000
0!
0#

#865000
1!
1#
b101010100 %
b101011000 &
b101010100 <
b101010100 F
b101011000 G
b101011000 H

#870000
0!
0#

#875000
1!
1#
b101011000 %
b101011100 &
b101011000 <
b101011000 F
b101011100 G
b101011100 H

#880000
0!
0#

#885000
1!
1#
b101011100 %
b101100000 &
b101011100 <
b101011100 F
b101100000 G
b101100000 H

#890000
0!
0#

#895000
1!
1#
b101100000 %
b101100100 &
b101100000 <
b101100000 F
b101100100 G
b101100100 H

#900000
0!
0#

#905000
1!
1#
b101100100 %
b101101000 &
b101100100 <
b101100100 F
b101101000 G
b101101000 H

#910000
0!
0#

#915000
1!
1#
b101101000 %
b101101100 &
b101101000 <
b101101000 F
b101101100 G
b101101100 H

#920000
0!
0#

#925000
1!
1#
b101101100 %
b101110000 &
b101101100 <
b101101100 F
b101110000 G
b101110000 H

#930000
0!
0#

#935000
1!
1#
b101110000 %
b101110100 &
b101110000 <
b101110000 F
b101110100 G
b101110100 H

#940000
0!
0#

#945000
1!
1#
b101110100 %
b101111000 &
b101110100 <
b101110100 F
b101111000 G
b101111000 H

#950000
0!
0#

#955000
1!
1#
b101111000 %
b101111100 &
b101111000 <
b101111000 F
b101111100 G
b101111100 H

#960000
0!
0#

#965000
1!
1#
b101111100 %
b110000000 &
b101111100 <
b101111100 F
b110000000 G
b110000000 H

#970000
0!
0#

#975000
1!
1#
b110000000 %
b110000100 &
b110000000 <
b110000000 F
b110000100 G
b110000100 H

#980000
0!
0#

#985000
1!
1#
b110000100 %
b110001000 &
b110000100 <
b110000100 F
b110001000 G
b110001000 H

#990000
0!
0#

#995000
1!
1#
b110001000 %
b110001100 &
b110001000 <
b110001000 F
b110001100 G
b110001100 H

